<?xml version="1.0" encoding="UTF-8"?>
<svg width="257px" height="64px" viewBox="0 0 257 64" version="1.1" xmlns="http://www.w3.org/2000/svg" xmlns:xlink="http://www.w3.org/1999/xlink">
    <defs>
        <polygon id="path-1" points="0.159478378 0.29617931 16.7914054 0.29617931 16.7914054 108.970119 0.159478378 108.970119"></polygon>
    </defs>
    <g id="Website" stroke="none" stroke-width="1" fill="none" fill-rule="evenodd">
        <g id="Desktop---Care-Mega-Menu" transform="translate(-160.000000, -29.000000)">
            <g id="Group-12" transform="translate(289.000000, 61.500000) rotate(-270.000000) translate(-289.000000, -61.500000) translate(257.000000, -67.000000)">
                <path d="M19.7884917,209.367827 C19.3280025,209.132643 18.8063656,209 18.2541549,209 C17.320947,209 16.4756977,209.377705 15.8642208,209.989652 L1.1563186,224.697554 C0.544841643,225.309501 0.166666667,226.15428 0.166666667,227.087488 C0.166666667,227.640169 0.299310129,228.161336 0.534493572,228.621825 L9.97757918,247.154751 C10.536375,248.249765 11.6751333,249 12.988868,249 C13.1690185,249 13.3454061,248.985419 13.5180307,248.958608 L34.0617749,245.70461 C35.5048605,245.477893 36.6445594,244.338194 36.8712763,242.894638 L40.1252744,222.351364 C40.1520853,222.178739 40.1666667,222.001881 40.1666667,221.822672 C40.1666667,220.508467 39.4164315,219.370179 38.3214174,218.810913 L19.7884917,209.367827" id="Fill-1" fill="#B0CB1F"></path>
                <path d="M31.8642208,256.70555 L46.6906554,249.150988 C47.5664785,248.703669 48.1666667,247.793039 48.1666667,246.741769 C48.1666667,246.597836 48.1553779,246.456726 48.133741,246.318909 L45.5302603,229.88429 C45.349169,228.729539 44.4371276,227.817498 43.2828473,227.636406 L26.8477579,225.032926 C26.7099404,225.011289 26.5688304,225 26.4248981,225 C25.3736281,225 24.4625274,225.599718 24.0156789,226.476011 L16.4611163,241.302446 C16.2729696,241.670743 16.1666667,242.087959 16.1666667,242.530103 C16.1666667,243.276576 16.4695829,243.952493 16.9587645,244.441675 L28.7249922,256.207902 C29.2141737,256.697084 29.8900909,257 30.6365632,257 C31.0787081,257 31.4959235,256.893697 31.8642208,256.70555" id="Fill-3" fill="#009CA5"></path>
                <path d="M20.3475106,248 L33.8932027,245.822183 C35.3222285,245.593711 36.4516574,244.447566 36.6757727,242.996319 L39.1666667,227.030233 L26.746676,225.033112 C26.6101567,225.011353 26.4703759,225 26.3277995,225 C25.2864325,225 24.3839144,225.60311 23.9408092,226.484832 L16.4578767,241.394649 C16.2715023,241.765029 16.1666667,242.184604 16.1666667,242.62925 C16.1666667,243.379944 16.4662635,244.059684 16.950837,244.551632 L20.3475106,248" id="Fill-5" fill="#009846"></path>
                <path d="M15.5895192,167.496524 C15.5895192,169.996072 15.7776785,170.405764 16.4821821,169.950916 L23.5768102,165.314476 C25.0806263,164.360094 26.4429582,163.405713 27.7114536,162.450391 L31.8932584,165.178068 L39.5047169,170.132479 C40.0682225,170.496546 40.3973798,170.132479 40.3973798,167.405742 L40.3973798,166.859642 C40.3973798,164.360094 40.2563818,164.041653 39.6457148,163.678057 L36.4975709,161.860076 C35.1347527,161.087257 33.4904249,160.132876 32.2690909,159.496465 C33.4437497,158.860054 34.853243,157.951298 36.4504095,156.951291 L39.6457148,154.90518 C40.2563818,154.496428 40.3973798,154.087676 40.3973798,151.496406 L40.3973798,150.768743 C40.3973798,147.951225 40.2563818,147.451221 39.5985535,147.859973 L31.7989356,152.996417 C30.1074464,154.132832 28.9327876,154.996432 27.5704556,156.041595 C26.4429582,155.269247 24.4694731,153.951269 22.7313086,152.86001 L16.4821821,148.85998 C15.9186765,148.495914 15.5895192,148.85998 15.5895192,151.587658 L15.5895192,152.042036 C15.5895192,154.542054 15.7305171,154.860024 16.3411841,155.223621 L19.0663342,156.769258 C20.381991,157.542076 21.7914843,158.36005 22.8723066,158.90568 C21.8386457,159.496465 20.5701503,160.223657 19.0663342,161.177568 L16.3411841,162.905709 C15.7776785,163.269305 15.5895192,163.905716 15.5895192,166.723235 L15.5895192,167.496524 Z M15.5895192,11.9544586 C15.5895192,14.5457288 15.7776785,14.7272918 16.4355069,14.6816658 C18.9724977,14.5001029 23.0599797,14.3636955 26.7249541,14.3636955 L39.69239,14.3636955 C40.2092205,14.3636955 40.3973798,14.272914 40.3973798,11.3180475 L40.3973798,11.0908586 C40.3973798,8.40927732 40.2092205,8.13646252 39.69239,8.13646252 L32.9269193,8.13646252 C28.5102799,8.13646252 25.8322912,7.59083292 24.0469654,6.45441817 C22.2144782,5.27284787 21.0869808,3.681585 20.8516601,1.13641107 C20.8049849,0.6364074 20.7111483,0.5 18.3146693,0.5 L17.6568409,0.5 C15.542844,0.5 15.4485212,0.590781476 15.3075233,0.909222199 C15.1665253,1.22719255 15.1198501,1.63641475 15.1198501,2.0907925 C15.1198501,5.00003307 17.1871719,6.9092663 21.0398194,8.3636514 C19.160657,8.45443287 16.62318,8.7728736 16.2001862,8.90928099 C15.6833558,9.04521802 15.5895192,9.45444022 15.5895192,11.6816438 L15.5895192,11.9544586 Z M31.4231032,26.5726281 C32.5506006,26.5726281 33.3965883,26.7090355 34.0544167,27.2090392 C34.8999182,27.8454503 35.46391,29.1638983 35.46391,30.6182834 C35.46391,34.3003425 32.456764,35.3911313 28.2754454,35.3911313 C23.4358122,35.3911313 20.7111483,33.8454944 20.7111483,30.527502 C20.7111483,28.9367095 21.6038112,27.4366984 22.9661432,26.5726281 L31.4231032,26.5726281 Z M15.5895192,23.1638542 C15.5895192,25.6177763 15.7776785,25.80028 16.2001862,25.8454356 L17.8916754,26.0274689 C16.3411841,27.0726318 15.1198501,29.3003057 15.1198501,31.7546982 C15.1198501,37.2091127 19.912322,41.7999272 28.4631185,41.7999272 C36.1684136,41.7999272 40.8670488,38.1183386 40.8670488,32.1639204 C40.8670488,29.845465 39.7862266,27.300291 38.1890601,25.9366874 C38.7525657,25.8454356 39.5047169,25.7546541 39.7862266,25.6182467 C40.303057,25.4366837 40.3973798,25.0726171 40.3973798,22.8454135 L40.3973798,22.6182246 C40.3973798,20.0274248 40.2092205,19.9817989 39.5513921,20.0274248 C37.0144013,20.2089877 32.9269193,20.3453951 29.2619449,20.3453951 L26.3957968,20.3453951 C22.5431493,20.3453951 17.7978389,20.2546137 16.2473476,20.2546137 C15.7305171,20.2546137 15.5895192,20.5730544 15.5895192,22.8910394 L15.5895192,23.1638542 Z M24.3756365,73.718318 C23.1543025,73.718318 22.4021513,73.5819106 21.8386457,73.0819069 C21.0869808,72.4003403 20.6168255,70.9003293 20.6168255,69.6275071 C20.6168255,68.354685 20.992658,67.0367073 21.9796437,66.2182629 C23.0599797,65.3095074 24.8457917,64.7182518 27.617617,64.7182518 C32.597762,64.7182518 35.3700735,66.3546703 35.3700735,69.673133 C35.3700735,71.1275181 34.7589203,72.6275292 33.5842614,73.718318 L24.3756365,73.718318 Z M15.5895192,77.5367844 C15.5895192,80.1275843 15.7805957,80.3096176 16.4355069,80.2639917 C18.9715253,80.0861917 23.0643555,79.945551 26.7249541,79.945551 L47.9616769,79.945551 C48.4741315,79.945551 48.6666667,79.8547695 48.6666667,76.9003734 L48.6666667,76.6731845 C48.6666667,73.9911328 48.4785073,73.718318 47.9616769,73.718318 L39.0345616,73.718318 C40.2092205,72.3547144 40.8670488,70.4003256 40.8670488,68.354685 C40.8670488,62.4002668 35.9335791,58.3089855 27.617617,58.3089855 C19.9589971,58.3089855 15.1198501,62.0366705 15.1198501,67.7182739 C15.1198501,70.3546997 16.294509,72.6731551 18.0798348,74.1731661 C17.374845,74.2639476 16.62318,74.3547291 16.2001862,74.4911365 C15.6833558,74.6731698 15.5895192,75.0819216 15.5895192,77.3095956 L15.5895192,77.5367844 Z M15.5895192,117.791078 C15.5895192,120.382349 15.7776785,120.563912 16.4355069,120.518286 C18.9724977,120.336723 23.0599797,120.200315 26.7249541,120.200315 L39.69239,120.200315 C40.2092205,120.200315 40.3973798,120.109534 40.3973798,117.154667 L40.3973798,116.927478 C40.3973798,114.245897 40.2092205,113.973082 39.69239,113.973082 L28.6512779,113.973082 C26.8659521,113.973082 25.1273014,113.973082 24.0469654,113.88183 C22.9189818,113.791049 22.1673168,113.56386 21.5566498,112.609479 C21.0398194,111.791034 20.8516601,110.65462 20.8516601,109.836646 C20.8516601,108.609449 21.2279787,107.563816 21.9324823,106.973031 C22.77847,106.245838 23.7649695,106.063805 27.00695,106.063805 L39.69239,106.063805 C40.2092205,106.063805 40.3973798,105.973024 40.3973798,103.018627 L40.3973798,102.791439 C40.3973798,100.109387 40.2092205,99.836572 39.69239,99.836572 L28.6512779,99.836572 C26.8659521,99.836572 25.1273014,99.836572 24.0469654,99.7457906 C22.9189818,99.6550091 22.1673168,99.4278202 21.5566498,98.4729684 C21.0398194,97.6549944 20.8516601,96.5185796 20.8516601,95.7001352 C20.8516601,94.472939 21.2279787,93.4277761 21.9324823,92.8360502 C22.77847,92.109328 23.7649695,91.9277651 27.00695,91.9277651 L39.69239,91.9277651 C40.2092205,91.9277651 40.3973798,91.8360429 40.3973798,88.8821171 L40.3973798,88.6549282 C40.3973798,85.9728765 40.2092205,85.7000617 39.69239,85.7000617 L25.2216242,85.7000617 C21.6504864,85.7000617 19.3954915,86.3364728 17.6568409,87.8364838 C16.0596744,89.2000875 15.1198501,91.291354 15.1198501,93.9277798 C15.1198501,96.7457685 16.4355069,99.3365684 18.8314997,101.15502 C16.3883455,102.427372 15.1198501,105.154579 15.1198501,107.973038 C15.1198501,110.563838 16.4355069,112.881823 18.2208327,114.381834 C17.515843,114.472616 16.62318,114.609023 16.2001862,114.745901 C15.6833558,114.927464 15.5895192,115.336686 15.5895192,117.56389 L15.5895192,117.791078 Z M25.5974567,140.227744 C22.4493127,139.636488 20.522989,138.00007 20.522989,135.500051 C20.522989,132.954407 22.6841472,131.545648 25.5974567,131.272833 L25.5974567,140.227744 Z M30.2017692,125.500448 C30.2017692,125.136852 29.590616,125.046071 27.758615,125.046071 C20.4291524,125.046071 15.1198501,128.636878 15.1198501,135.545677 C15.1198501,142.500573 20.5701503,146.727792 28.2754454,146.727792 C36.2627364,146.727792 40.8670488,142.182133 40.8670488,135.045674 C40.8670488,131.864089 39.9272246,128.50047 38.612054,126.227641 C38.2828967,125.682011 38.0009008,125.636856 36.4037343,126.182485 L35.2290755,126.591237 C33.8195822,127.091241 33.6314228,127.31843 33.8662574,127.818433 C34.7589203,129.864074 35.3700735,132.000026 35.3700735,134.2277 C35.3700735,137.682099 33.5375863,139.72774 30.2017692,140.227744 L30.2017692,125.500448 Z M5.66666667,50.7816489 C5.66666667,53.4632303 5.854826,53.7365154 6.37117023,53.7365154 L34.2892512,53.7365154 C36.4975709,53.7365154 38.0952236,53.3729192 39.222721,52.2821303 C40.1153839,51.4185304 40.6322143,50.1000823 40.6322143,48.4636639 C40.6322143,47.2820936 40.3973798,46.1000529 40.0682225,45.4180159 C39.8805494,45.0544196 39.69239,45.0092641 38.0009008,45.0092641 L37.5783931,45.0092641 C35.8397425,45.0092641 35.5110714,45.0544196 35.5110714,45.4636418 L35.5110714,46.0092641 C35.5110714,47.1456862 34.9898652,47.5092825 33.9134187,47.5092825 L6.37117023,47.5092825 C5.8592018,47.5092825 5.66666667,47.6000639 5.66666667,50.5544601 L5.66666667,50.7816489 Z M7.32023232,188.899785 C7.32023232,191.299145 8.56101431,192.5 11.0416059,192.5 L36.6760062,192.5 C39.1565978,192.5 40.3973798,191.299615 40.3973798,188.899785 L40.3973798,173.655083 C40.3973798,173.077468 40.1217045,172.899668 37.8705992,172.899668 L37.5030322,172.899668 C35.1600351,172.899668 35.0681434,173.032783 35.0681434,173.655083 L35.0681434,186.054986 L26.3393976,186.054986 L26.3393976,175.698842 C26.3393976,175.121697 26.0642085,174.943897 23.8126171,174.943897 L23.4455362,174.943897 C21.1025392,174.943897 21.0106474,175.077482 21.0106474,175.698842 L21.0106474,186.054986 L12.6494688,186.054986 L12.6494688,173.832883 C12.6494688,173.255268 12.3737935,173.077468 10.1226882,173.077468 L9.75512112,173.077468 C7.41212409,173.077468 7.32023232,173.210112 7.32023232,173.832883 L7.32023232,188.899785 L7.32023232,188.899785 Z" id="Fill-7" fill="#727271"></path>
                <g id="Group-11" transform="translate(46.166667, 84.000000)">
                    <mask id="mask-2" fill="white">
                        <use xlink:href="#path-1"></use>
                    </mask>
                    <g id="Clip-10"></g>
                    <path d="M9.77642432,8.44580862 C7.49015405,8.12773534 6.44626216,6.83336034 6.44626216,5.17674828 C6.44626216,3.2697181 8.11134324,2.40711466 9.77642432,2.38456293 L9.77642432,8.44580862 Z M11.4189919,0.523106034 C11.4189919,0.341282759 11.2862081,0.29617931 10.6199919,0.29617931 C9.31053243,0.29617931 8.08928919,0.523106034 7.06791081,1.04508448 C5.60269459,1.79445948 4.62588378,3.17904138 4.62588378,5.19976983 C4.62588378,8.55903707 7.24572162,10.6474207 10.9751541,10.6474207 C14.5492892,10.6474207 16.7914514,8.7638819 16.7914514,5.08607155 C16.7914514,3.56523966 16.4362892,2.13461466 15.7705324,0.976959483 C15.6593432,0.795606034 15.5261,0.772584483 14.9490189,1.02253276 L14.6825324,1.13576121 C14.1275054,1.36315776 14.172073,1.49940776 14.2607486,1.70331293 C14.7491541,2.79331293 14.971073,3.7465931 14.971073,4.7003431 C14.971073,5.88055 14.7050459,6.766175 14.172073,7.37883017 C13.5949919,8.0826319 12.6402351,8.44580862 11.4189919,8.51393362 L11.4189919,0.523106034 Z M4.8478027,16.4230112 C4.8478027,17.2851448 4.93693784,17.3537397 5.11428919,17.3537397 C5.66977568,17.3537397 7.22366757,17.3076966 8.73299189,17.3076966 L16.3030459,17.3076966 C16.4808568,17.3076966 16.5695324,17.2400414 16.5695324,16.3318647 L16.5695324,16.1960845 C16.5695324,15.2879078 16.4588027,15.2648862 16.3030459,15.2648862 L13.7502892,15.2648862 C12.4624243,15.2648862 11.0863432,15.2423345 10.4646946,15.1967612 C9.68774865,15.1511879 9.0661,14.9703043 8.55564054,14.652231 C7.51220811,13.9940026 6.5353973,13.1760328 6.5353973,11.564994 C6.5353973,11.3375974 6.35758649,11.3145759 5.71388378,11.3145759 L5.38077568,11.3145759 C4.87031622,11.3145759 4.80369459,11.3375974 4.75912703,11.5419724 C4.73707297,11.6556707 4.71455946,11.8144724 4.71455946,12.0183776 C4.71455946,13.2220759 5.53653243,14.4704078 7.40101892,15.3330112 L5.11428919,15.3785845 C4.91488378,15.3785845 4.8478027,15.4918129 4.8478027,16.3088431 L4.8478027,16.4230112 Z M11.0863432,22.4480802 C13.0174514,22.4480802 13.6391,22.5387569 14.1500189,23.0151621 C14.7937216,23.6278172 15.0156405,24.5364638 15.0156405,25.285369 C15.0156405,27.623231 12.8842081,28.372606 10.7978027,28.372606 C8.1333973,28.372606 6.42420811,27.1468259 6.42420811,25.0579724 C6.42420811,23.9914638 7.13453243,22.9695888 7.93399189,22.4480802 L11.0863432,22.4480802 Z M4.8478027,21.2899552 C4.8478027,21.9707353 4.8478027,22.0839638 5.11428919,22.1065155 L6.04699189,22.2202138 C5.24753243,22.8563603 4.62588378,23.922869 4.62588378,25.285369 C4.62588378,28.2819293 7.11247838,30.5065629 10.9085324,30.5065629 C14.1054514,30.5065629 16.7914514,28.9627095 16.7914514,25.6480759 C16.7914514,24.1732871 16.1477486,22.8789121 15.282127,22.1525586 L16.3030459,22.0163086 C16.5029108,21.9937569 16.5695324,21.8575069 16.5695324,21.1537052 L16.5695324,21.0625586 C16.5695324,20.3587569 16.4808568,20.2455284 16.3030459,20.2455284 C15.0822622,20.3141233 13.6391,20.4043302 11.5968027,20.4043302 L8.48855946,20.4043302 C7.06791081,20.4043302 5.64726216,20.3587569 5.11428919,20.3587569 C4.93693784,20.3587569 4.8478027,20.3817784 4.8478027,21.2443819 L4.8478027,21.2899552 Z M0.159478378,56.0788086 C0.159478378,56.9846362 0.271127027,57.0090672 0.425505405,57.0090672 L16.3030459,57.0090672 C16.4799378,57.0090672 16.5695324,56.9414121 16.5695324,56.0332353 L16.5695324,55.8969853 C16.5695324,54.9888086 16.4588027,54.9662569 16.3030459,54.9662569 L11.9299108,54.9662569 C10.6420459,54.9662569 9.50993784,54.9437052 8.88828919,54.8986017 C7.93399189,54.8074552 7.55631622,54.5575069 7.31234324,54.2850069 C6.80142432,53.7400069 6.51334324,52.7186017 6.51334324,51.87855 C6.51334324,50.8796966 6.73526216,50.1533431 7.24572162,49.7220414 C7.86737027,49.1770414 8.71093784,49.1093862 10.5092622,49.1093862 L16.3030459,49.1093862 C16.4808568,49.1093862 16.5695324,49.0407914 16.5695324,48.1335543 L16.5695324,47.9973043 C16.5695324,47.0891276 16.4588027,47.066106 16.3030459,47.066106 L9.57655946,47.066106 C7.77823514,47.066106 6.62407297,47.4072009 5.80301892,48.224231 C5.04812703,48.9731362 4.62588378,50.0856879 4.62588378,51.3340198 C4.62588378,52.6965198 5.18137027,54.1713086 6.04699189,54.9662569 L0.425505405,54.9662569 C0.248154054,54.9662569 0.159478378,55.0353216 0.159478378,55.9425586 L0.159478378,56.0788086 Z M1.56220811,63.5105414 C1.56220811,64.4191879 1.65134324,64.4868431 1.82869459,64.4868431 L4.8478027,64.4868431 L4.8478027,65.9169983 C4.8478027,66.0762698 4.95899189,66.1218431 5.53653243,66.1218431 L5.71388378,66.1218431 C6.31301892,66.1218431 6.42420811,66.0762698 6.42420811,65.9169983 L6.42420811,64.4868431 L13.1286405,64.4868431 C14.6159108,64.4868431 15.4594784,64.2829379 16.059073,63.6242397 C16.5254243,63.1252828 16.7914514,62.3759078 16.7914514,61.3540328 C16.7914514,60.513981 16.5920459,59.538619 16.2364243,58.9710672 C16.1256946,58.7887741 15.9924514,58.7887741 15.5261,58.9029422 L15.2375595,58.9710672 C14.8157757,59.0838259 14.7271,59.1524207 14.7937216,59.3788776 C14.9269649,59.8336707 15.0822622,60.4012224 15.0822622,60.922731 C15.0822622,61.4451793 14.9490189,61.8313776 14.6825324,62.0803862 C14.3719378,62.3759078 13.8169108,62.4440328 12.9733432,62.4440328 L6.42420811,62.4440328 L6.42420811,59.5837224 C6.42420811,59.4249207 6.31301892,59.3788776 5.71388378,59.3788776 L5.53653243,59.3788776 C4.95899189,59.3788776 4.8478027,59.4249207 4.8478027,59.5837224 L4.8478027,62.4440328 L1.82869459,62.4440328 C1.6733973,62.4440328 1.56220811,62.4665845 1.56220811,63.3747612 L1.56220811,63.5105414 Z M0.159478378,69.6267569 C0.159478378,70.397744 0.226559459,70.6298388 0.448018919,70.6030586 C1.3141,70.4940586 4.19628919,70.4668086 6.52345135,70.4668086 L13.4874784,70.4668086 C14.6600189,70.4668086 15.3910189,70.3728431 15.8146405,70.0806103 C16.4123973,69.6690414 16.5695324,69.0366534 16.5695324,68.4005069 C16.5695324,68.0603517 16.5029108,67.6516017 16.3921811,67.3339983 C16.3476135,67.1977483 16.2589378,67.1977483 15.6818568,67.1977483 L15.6152351,67.1977483 C15.1043162,67.1977483 15.0156405,67.2203 15.0156405,67.3339983 L15.0156405,67.5604552 C15.0156405,68.3098302 14.7271,68.4230586 13.9092622,68.4230586 L7.01185676,68.4230586 C3.72993784,68.4230586 1.06874865,68.4423216 0.448018919,68.5593086 C0.225181081,68.6011233 0.159478378,68.7641534 0.159478378,69.4905069 L0.159478378,69.6267569 Z M11.0863432,75.4930241 C13.0174514,75.4930241 13.6391,75.583231 14.1500189,76.0596362 C14.7937216,76.673231 15.0156405,77.5809379 15.0156405,78.3298431 C15.0156405,80.6686448 12.8842081,81.4170802 10.7978027,81.4170802 C8.1333973,81.4170802 6.42420811,80.1917698 6.42420811,78.1033862 C6.42420811,77.0359379 7.13453243,76.0145328 7.93399189,75.4930241 L11.0863432,75.4930241 Z M4.8478027,74.3344293 C4.8478027,75.0156793 4.8478027,75.1293776 5.11428919,75.1519293 L6.04699189,75.2656276 C5.24753243,75.9008345 4.62588378,76.9682828 4.62588378,78.3298431 C4.62588378,81.3268733 7.11247838,83.5510371 10.9085324,83.5510371 C14.1054514,83.5510371 16.7914514,82.0071836 16.7914514,78.6934897 C16.7914514,77.218231 16.1477486,75.9243259 15.282127,75.1970328 L16.3030459,75.0612526 C16.5029108,75.038231 16.5695324,74.901981 16.5695324,74.1981793 L16.5695324,74.1079724 C16.5695324,73.4041707 16.4808568,73.2909422 16.3030459,73.2909422 C15.0822622,73.3590672 13.6391,73.4492741 11.5968027,73.4492741 L8.48855946,73.4492741 C7.06791081,73.4492741 5.64726216,73.4041707 5.11428919,73.4041707 C4.93693784,73.4041707 4.8478027,73.4271922 4.8478027,74.2897957 L4.8478027,74.3344293 Z M9.77642432,93.2990198 C7.49015405,92.9814164 6.44626216,91.687981 6.44626216,90.0299595 C6.44626216,88.1233991 8.11134324,87.2607957 9.77642432,87.238244 L9.77642432,93.2990198 Z M11.4189919,85.3763172 C11.4189919,85.1949638 11.2862081,85.1498603 10.6199919,85.1498603 C9.31053243,85.1498603 8.08928919,85.3763172 7.06791081,85.8987655 C5.60269459,86.6476707 4.62588378,88.0327224 4.62588378,90.052981 C4.62588378,93.4131879 7.24572162,95.5015716 10.9751541,95.5015716 C14.5492892,95.5015716 16.7914514,93.6166233 16.7914514,89.9397526 C16.7914514,88.4189207 16.4362892,86.9887655 15.7705324,85.8306405 C15.6593432,85.6488172 15.5261,85.6262655 14.9490189,85.8762138 L14.6825324,85.9894422 C14.1275054,86.216369 14.172073,86.352619 14.2607486,86.5574638 C14.7491541,87.6465241 14.971073,88.6002741 14.971073,89.5540241 C14.971073,90.734231 14.7050459,91.6189164 14.172073,92.2325112 C13.5949919,92.9363129 12.6402351,93.2990198 11.4189919,93.3676147 L11.4189919,85.3763172 Z M2.54682973,31.7281147 C2.22153243,31.5726017 1.89577568,31.5284379 1.8093973,31.6613991 C1.09264054,32.74905 0.723694595,34.1467871 0.723694595,35.6568129 C0.723694595,40.6731621 4.67458649,42.381925 8.97237027,42.381925 C13.5527216,42.381925 16.7868568,40.3842181 16.7868568,35.9448172 C16.7868568,34.3915672 16.4395054,32.9708086 15.7663973,31.7718086 C15.6795595,31.6388474 15.3542622,31.683481 15.0285054,31.838994 L14.7463973,31.9719552 C14.3558568,32.14955 14.2037757,32.3717784 14.2685595,32.5047397 C14.7463973,33.4815112 14.9853162,34.5245284 14.9853162,35.5454638 C14.9853162,39.1640759 11.8591541,40.2070931 8.84188378,40.2070931 C4.45726216,40.2070931 2.48204595,38.120119 2.48204595,35.4345845 C2.48204595,34.3915672 2.76415405,33.4147957 3.30677568,32.3938603 C3.37201892,32.2604293 3.15469459,32.0386707 2.8078027,31.8610759 L2.54682973,31.7281147 Z M0.941018919,108.060063 C0.941018919,108.637481 1.0058027,108.970119 1.17947838,108.970119 L16.331073,108.970119 C16.5047486,108.970119 16.5695324,108.637481 16.5695324,108.015899 L16.5695324,107.771119 C16.5695324,107.194641 16.5047486,106.862003 16.331073,106.862003 L9.51499189,106.862003 L9.51499189,99.8921103 L16.331073,99.8921103 C16.5047486,99.8921103 16.5695324,99.5590026 16.5695324,98.9369509 L16.5695324,98.6935802 C16.5695324,98.1156922 16.5047486,97.7825845 16.331073,97.7825845 L1.17947838,97.7825845 C1.0058027,97.7825845 0.941018919,98.1156922 0.941018919,98.737744 L0.941018919,98.9815845 C0.941018919,99.5590026 1.0058027,99.8921103 1.17947838,99.8921103 L7.80028919,99.8921103 L7.80028919,106.862003 L1.17947838,106.862003 C1.0058027,106.862003 0.941018919,107.194641 0.941018919,107.816222 L0.941018919,108.060063 L0.941018919,108.060063 Z" id="Fill-9" fill="#009CA5" mask="url(#mask-2)"></path>
                </g>
            </g>
        </g>
    </g>
</svg>