<!--
Few things to help you when making SVGs:

////
Add a <title> (like an alt tag) and <desc> (like meta data but not required) for SEO purposes

////
If your SVG is wrapped in a link path <a>, add an aria-label which acts as a description for the SVG file
<a target="_blank" href="#" aria-label="This would be your description"><svg><use xlink:href="...#ref"></use></svg></a>

////
If your SVG is decorative only and do not require alt text or screen reader accessible then hide the SVG using aria-hidden="true"

<svg aria-hidden="true"><use>...</use></svg>
////

If your SVG is inline you need to specify its use
<svg role="img"><use>...</use></svg>

////
Here's an example of how you can use the sprite in its basic form

<svg class="svg-icon-16" viewBox="0 0 128 128">
    <use xlink:href="/path/to/theme/and/assets/icons/svg/icons.svg#symbol"></use>
</svg>

////
Other tips for making SVGs accessible can be found here: https://css-tricks.com/accessible-svgs/
-->

<svg version="1.1" xmlns="http://www.w3.org/2000/svg" display="none">
    <symbol id="cancel" viewBox="0 0 128 128">
        <title>Close</title>
        <path id="circle_1_" d="M64,0C28.7,0,0,28.7,0,64s28.7,64,64,64c35.4,0,64-28.7,64-64S99.4,0,64,0z M64,120
    C33.1,120,8,94.9,8,64S33.1,8,64,8c30.9,0,56,25.1,56,56S94.9,120,64,120z" />
        <path id="cross_1_" d="M90.9,85.1L69.9,64l20.9-20.8c1.6-1.6,1.6-4.1,0-5.7c-1.6-1.6-4.1-1.6-5.7,0L64.2,58.3
    L42.9,37.1c-1.6-1.6-4.1-1.6-5.7,0c-1.6,1.6-1.6,4.2,0,5.7L58.4,64L37.1,85.2c-1.6,1.6-1.6,4.1,0,5.7c1.6,1.6,4.1,1.6,5.7,0
        l21.3-21.1l21.1,21.1c1.6,1.6,4.1,1.6,5.7,0C92.5,89.2,92.5,86.7,90.9,85.1z" />
    </symbol>
    <symbol viewBox="0 0 48 48" id="arrow-down">
        <title>Scroll down</title>
        <path d="M14,20l10,10l10-10H14z" />
    </symbol>
    <symbol viewBox="-16 -16 128 128" id="search">
        <title>Search</title>
        <path d="M96,88L71.3,63.3c5-6.6,7.9-14.8,7.9-23.7C79.3,17.7,61.5,0,39.6,0C17.7,0,0,17.7,0,39.6s17.7,39.6,39.6,39.6
    c8.9,0,17.1-3,23.7-7.9L88,96L96,88z M11.3,39.6C11.3,24,24,11.3,39.6,11.3c15.6,0,28.3,12.7,28.3,28.3S55.2,67.9,39.6,67.9
    C24,67.9,11.3,55.2,11.3,39.6z" />
    </symbol>
    <symbol id="cancel" viewBox="0 0 128 128">
        <title>Close</title>
        <path id="circle_1_" d="M64,0C28.7,0,0,28.7,0,64s28.7,64,64,64c35.4,0,64-28.7,64-64S99.4,0,64,0z M64,120
    C33.1,120,8,94.9,8,64S33.1,8,64,8c30.9,0,56,25.1,56,56S94.9,120,64,120z" />
        <path id="cross_1_" d="M90.9,85.1L69.9,64l20.9-20.8c1.6-1.6,1.6-4.1,0-5.7c-1.6-1.6-4.1-1.6-5.7,0L64.2,58.3
    L42.9,37.1c-1.6-1.6-4.1-1.6-5.7,0c-1.6,1.6-1.6,4.2,0,5.7L58.4,64L37.1,85.2c-1.6,1.6-1.6,4.1,0,5.7c1.6,1.6,4.1,1.6,5.7,0
        l21.3-21.1l21.1,21.1c1.6,1.6,4.1,1.6,5.7,0C92.5,89.2,92.5,86.7,90.9,85.1z" />
    </symbol>
    <symbol id="twitter" viewBox="0 0 512 512">
        <title>Twitter</title>
        <path d="M196.6,386c120.8,0,186.8-100,186.8-186.8,0-2.8,0-5.7-.2-8.5a133.6,133.6,0,0,0,32.8-34,131,131,0,0,1-37.7,10.3,65.9,65.9,0,0,0,28.9-36.3,131.6,131.6,0,0,1-41.7,15.9,65.7,65.7,0,0,0-111.9,59.9A186.4,186.4,0,0,1,118.3,138a65.7,65.7,0,0,0,20.3,87.6,65.2,65.2,0,0,1-29.8-8.2v.8a65.7,65.7,0,0,0,52.7,64.4,65.5,65.5,0,0,1-29.6,1.1,65.7,65.7,0,0,0,61.3,45.6,131.7,131.7,0,0,1-81.5,28.2,133.6,133.6,0,0,1-15.6-.9A185.9,185.9,0,0,0,196.6,386" fill="#3B4448" />
    </symbol>
    <symbol id="pinterest" viewBox="0 0 512 512">
        <title>pinterest</title>
        <circle cx="256" cy="256" r="256" fill="none" />
        <path d="M256,0C114.6,0,0,114.6,0,256,0,364.5,67.5,457.2,162.7,494.5c-2.2-20.3-4.3-51.4.9-73.5,4.7-20,30-127.2,30-127.2s-7.7-15.3-7.7-38c0-35.6,20.6-62.2,46.3-62.2,21.8,0,32.4,16.4,32.4,36.1,0,22-14,54.8-21.2,85.2-6,25.5,12.8,46.3,37.9,46.3,45.5,0,80.5-48,80.5-117.2,0-61.3-44-104.2-106.9-104.2-72.8,0-115.6,54.6-115.6,111.1,0,22,8.5,45.6,19.1,58.4a7.7,7.7,0,0,1,1.8,7.3c-1.9,8.1-6.3,25.5-7.1,29s-3.7,5.7-8.6,3.4c-32-14.9-52-61.6-52-99.2,0-80.8,58.7-154.9,169.1-154.9,88.8,0,157.8,63.3,157.8,147.9C419.5,331,363.9,402,286.6,402c-25.9,0-50.3-13.5-58.7-29.4,0,0-12.8,48.9-15.9,60.9-5.8,22.2-21.4,50.1-31.8,67.1A255.9,255.9,0,0,0,256,512c141.4,0,256-114.6,256-256S397.4,0,256,0Z" fill="#3B4448" />
    </symbol>
    <symbol id="linkedin" viewBox="0 0 512 512">
        <title>LinkedIn</title>
        <path d="M75.9,191.9h76V436.3h-76Zm38-121.5a44,44,0,1,1-44,44.1,44.1,44.1,0,0,1,44-44.1" fill="#3B4448" />
        <path d="M199.5,191.9h72.8v33.4h1c10.1-19.2,34.9-39.5,71.9-39.5,76.9,0,91.1,50.6,91.1,116.4v134H360.4V317.5c0-28.3-.5-64.8-39.5-64.8s-45.5,30.9-45.5,62.8V436.3H199.5Z" fill="#3B4448" />
    </symbol>
    <symbol id="instagram" viewBox="0 0 512 512">
        <title>Instagram</title>
        <path fill="#3B4448" d="M256,49.5c67.3,0,75.2.3,101.8,1.5,24.6,1.1,37.9,5.2,46.8,8.7a78.1,78.1,0,0,1,29,18.8,78.1,78.1,0,0,1,18.8,29c3.4,8.9,7.6,22.2,8.7,46.8,1.2,26.6,1.5,34.5,1.5,101.8s-.3,75.2-1.5,101.8c-1.1,24.6-5.2,37.9-8.7,46.8a83.4,83.4,0,0,1-47.8,47.8c-8.9,3.4-22.2,7.6-46.8,8.7-26.6,1.2-34.5,1.5-101.8,1.5s-75.2-.3-101.8-1.5c-24.6-1.1-37.9-5.2-46.8-8.7a78.1,78.1,0,0,1-29-18.8,78.1,78.1,0,0,1-18.8-29c-3.4-8.9-7.6-22.2-8.7-46.8-1.2-26.6-1.5-34.5-1.5-101.8s.3-75.2,1.5-101.8c1.1-24.6,5.2-37.9,8.7-46.8a78.1,78.1,0,0,1,18.8-29,78.1,78.1,0,0,1,29-18.8c8.9-3.4,22.2-7.6,46.8-8.7,26.6-1.2,34.5-1.5,101.8-1.5m0-45.4c-68.4,0-77,.3-103.9,1.5S107,11.1,91,17.3A123.5,123.5,0,0,0,46.4,46.4,123.5,123.5,0,0,0,17.3,91c-6.2,16-10.5,34.3-11.7,61.2S4.1,187.6,4.1,256s.3,77,1.5,103.9S11.1,405,17.3,421a123.5,123.5,0,0,0,29.1,44.6A123.5,123.5,0,0,0,91,494.7c16,6.2,34.3,10.5,61.2,11.7s35.4,1.5,103.9,1.5,77-.3,103.9-1.5,45.1-5.5,61.2-11.7A128.8,128.8,0,0,0,494.7,421c6.2-16,10.5-34.3,11.7-61.2s1.5-35.4,1.5-103.9-.3-77-1.5-103.9S500.9,107,494.7,91a123.5,123.5,0,0,0-29.1-44.6A123.5,123.5,0,0,0,421,17.3c-16-6.2-34.3-10.5-61.2-11.7S324.4,4.1,256,4.1Z" />
        <path fill="#3B4448" d="M256,126.6A129.4,129.4,0,1,0,385.4,256,129.4,129.4,0,0,0,256,126.6ZM256,340a84,84,0,1,1,84-84A84,84,0,0,1,256,340Z" />
        <circle fill="#3B4448" cx="390.5" cy="121.5" r="30.2" />
    </symbol>
    <symbol id="search" viewBox="0 0 72 72">
        <title>Search</title>
        <desc>Toggle keyword search</desc>
        <path d="M62.1,57.3,47.8,43a21.9,21.9,0,0,0,4-12.5A21.5,21.5,0,1,0,30.3,51.9a21.8,21.8,0,0,0,12.8-4.2L57.4,62a3.3,3.3,0,0,0,4.7-4.7Zm-48-26.8A16.3,16.3,0,1,1,30.3,46.7,16.3,16.3,0,0,1,14.1,30.5Z" fill="#b22b2e" />
    </symbol>
</svg>
