<?xml version="1.0" encoding="utf-8"?>
<!-- Generator: Adobe Illustrator 22.1.0, SVG Export Plug-In . SVG Version: 6.00 Build 0)  -->
<svg version="1.1" id="Layer_1" xmlns="http://www.w3.org/2000/svg" xmlns:xlink="http://www.w3.org/1999/xlink" x="0px" y="0px"
	 viewBox="0 0 488.9 488.9" style="enable-background:new 0 0 488.9 488.9;" xml:space="preserve">
<style type="text/css">
	.st0{fill:#FFFFFF;}
</style>
<path class="st0" d="M471.1,225.6c12.1,5,9.3,24.4,0,33.7L262,468.3c-9.3,9.3-24.4,9.3-33.7,0L19.2,259.2c-9.3-9.3-11.8-27.9,0-33.7
	C120.7,176,366.7,182.3,471.1,225.6z"/>
</svg>
